<?xml version="1.0" encoding="UTF-8" standalone="no"?>
<svg
   xmlns:dc="http://purl.org/dc/elements/1.1/"
   xmlns:cc="http://creativecommons.org/ns#"
   xmlns:rdf="http://www.w3.org/1999/02/22-rdf-syntax-ns#"
   xmlns:svg="http://www.w3.org/2000/svg"
   xmlns="http://www.w3.org/2000/svg"
   xmlns:sodipodi="http://sodipodi.sourceforge.net/DTD/sodipodi-0.dtd"
   xmlns:inkscape="http://www.inkscape.org/namespaces/inkscape"
   id="Layer_1"
   enable-background="new 0 0 512 512"
   height="512"
   viewBox="0 0 512 512"
   width="512"
   version="1.1"
   sodipodi:docname="ice.svg"
   inkscape:version="1.0.2 (e86c8708, 2021-01-15)">
  <metadata
     id="metadata49">
    <rdf:RDF>
      <cc:Work
         rdf:about="">
        <dc:format>image/svg+xml</dc:format>
        <dc:type
           rdf:resource="http://purl.org/dc/dcmitype/StillImage" />
      </cc:Work>
    </rdf:RDF>
  </metadata>
  <defs
     id="defs47" />
  <sodipodi:namedview
     pagecolor="#ffffff"
     bordercolor="#666666"
     borderopacity="1"
     objecttolerance="10"
     gridtolerance="10"
     guidetolerance="10"
     inkscape:pageopacity="0"
     inkscape:pageshadow="2"
     inkscape:window-width="1440"
     inkscape:window-height="847"
     id="namedview45"
     showgrid="false"
     inkscape:zoom="1.2480469"
     inkscape:cx="256"
     inkscape:cy="256"
     inkscape:window-x="0"
     inkscape:window-y="25"
     inkscape:window-maximized="1"
     inkscape:current-layer="g42" />
  <g
     id="g42">
    <path
       d="m235.462 7.504h-146.462l-81.5 72.994v135.887l149.808 69.115 86.841-203.064z"
       fill="#bdf9ff"
       id="path10"
       style="fill:#aa0000" />
    <path
       d="m235.462 7.504h-30l8.687 74.932-80.922 191.954 24.081 11.11 86.841-203.064z"
       fill="#8cf2ff"
       id="path12"
       style="fill:#550000" />
    <path
       d="m275.462 7.504 13.372 79.391-82.185 211.264 181.633 29.648 116.218-64.465v-166.494l-82.059-89.348z"
       fill="#bdf9ff"
       id="path14"
       style="fill:#aa0000" />
    <path
       d="m422.441 7.5h-29.999l82.058 89.348-2.708 158.005-114.938 67.824 31.428 5.13 116.218-64.465v-166.494z"
       fill="#8cf2ff"
       id="path16"
       style="fill:#550000" />
    <path
       d="m7.5 247.633 139.06 75.852 36.622 181.015h-131.72l-43.962-81.962z"
       fill="#bdf9ff"
       id="path18"
       style="fill:#aa0000" />
    <path
       d="m146.56 323.485-139.06-75.852v32.359l109.06 59.488 36.622 165.02h30z"
       fill="#8cf2ff"
       id="path20"
       style="fill:#550000" />
    <path
       d="m213.103 504.5-6.454-162.167 160.3 39.66 21.333 122.507z"
       fill="#bdf9ff"
       id="path22"
       style="fill:#aa0000" />
    <path
       d="m366.949 381.993-160.3-39.66.803 20.176 132.305 35.608 18.525 106.383h30z"
       fill="#8cf2ff"
       id="path24"
       style="fill:#550000" />
    <path
       d="m416.599 504.5-10.266-129.107 98.167-59.726v111.936l-49.083 76.897z"
       fill="#bdf9ff"
       id="path26"
       style="fill:#aa0000" />
    <path
       d="m474.5 333.919v93.684l-49.083 76.897h30l49.083-76.897v-111.936z"
       fill="#8cf2ff"
       id="path28"
       style="fill:#550000" />
    <g
       id="g40">
      <path
         d="m4.358 223.195 149.808 69.115c3.844 1.773 8.382.012 10.037-3.861l11.452-26.779c1.629-3.809-.138-8.217-3.946-9.845-3.812-1.633-8.218.139-9.845 3.946l-8.419 19.687-138.445-63.873v-127.736l76.867-68.845h136.914l7.688 66.315-62.02 145.023c-1.629 3.809.138 8.217 3.946 9.845 3.81 1.632 8.217-.14 9.845-3.946l62.804-146.856c.514-1.201.705-2.516.555-3.813l-8.687-74.932c-.438-3.783-3.643-6.637-7.45-6.637h-146.462c-1.847 0-3.628.682-5.004 1.913l-81.5 72.994c-1.588 1.424-2.496 3.455-2.496 5.588v135.887c0 2.926 1.701 5.584 4.358 6.81z"
         id="path30" />
      <path
         d="m510.023 91.774-28.973-31.546c-2.801-3.051-7.546-3.253-10.597-.45-3.051 2.802-3.252 7.546-.45 10.597l26.997 29.395v159.156l-110.079 61.06-169.925-27.736 78.828-202.635c.49-1.261.63-2.631.405-3.965l-11.898-70.646 134.815-.004 29.222 31.816c2.801 3.051 7.546 3.253 10.597.45 3.051-2.802 3.252-7.546.45-10.597l-31.45-34.243c-1.421-1.546-3.425-2.426-5.525-2.426l-146.978.004c-4.63 0-8.168 4.165-7.396 8.746l13.028 77.353-81.434 209.337c-1.73 4.447 1.081 9.352 5.781 10.121l181.633 29.647c.401.065.806.098 1.208.098 1.267 0 2.52-.32 3.638-.941l116.218-64.465c2.384-1.322 3.862-3.833 3.862-6.559v-166.493c0-1.879-.705-3.69-1.977-5.074z"
         id="path32" />
      <path
         d="m153.91 321.997c-.438-2.171-1.814-4.036-3.759-5.097l-139.06-75.852c-2.323-1.267-5.145-1.216-7.42.135-2.275 1.352-3.671 3.802-3.671 6.45v174.905c0 1.237.306 2.455.891 3.545l43.962 81.962c1.307 2.436 3.846 3.955 6.609 3.955h131.72c2.25 0 4.381-1.01 5.806-2.752 1.424-1.741 1.991-4.03 1.546-6.235zm-97.96 175.003-40.95-76.347v-160.386l124.901 68.129 34.112 168.604z"
         id="path34" />
      <path
         d="m374.337 380.706c-.51-2.929-2.701-5.279-5.587-5.993l-160.299-39.66c-4.842-1.197-9.494 2.586-9.296 7.578l6.453 162.167c.16 4.023 3.468 7.202 7.494 7.202h42.898c4.143 0 7.5-3.357 7.5-7.5s-3.357-7.5-7.5-7.5h-35.69l-5.77-144.988 145.858 36.087 18.965 108.901h-90.773c-4.143 0-7.5 3.357-7.5 7.5s3.357 7.5 7.5 7.5h99.692c2.214 0 4.315-.979 5.74-2.673s2.028-3.933 1.648-6.114z"
         id="path36" />
      <path
         d="m508.175 309.129c-2.363-1.327-5.257-1.278-7.573.131l-98.167 59.726c-2.419 1.472-3.803 4.18-3.578 7.002l10.266 129.107c.311 3.899 3.565 6.905 7.477 6.905h38.818c2.561 0 4.944-1.307 6.322-3.465l49.083-76.897c.769-1.205 1.178-2.605 1.178-4.035v-111.936c-.001-2.71-1.463-5.21-3.826-6.538zm-11.175 116.284-45.693 71.587h-27.78l-9.351-117.6 82.824-50.391z"
         id="path38" />
    </g>
  </g>
</svg>
